…
    library(lubridate)

    ## 
    ## Attaching package: 'lubridate'

    ## The following object is masked from 'package:base':
    ## 
    ##     date

    weather %>% mutate(day_of_year = yday(time_hour))

    ## # A tibble: 26,115 x 16
    ##    origin  year month   day  hour  temp  dewp humid wind_dir wind_speed
    ##    <chr>  <int> <int> <int> <int> <dbl> <dbl> <dbl>    <dbl>      <dbl>
    ##  1 EWR     2013     1     1     1  39.0  26.1  59.4      270      10.4 
    ##  2 EWR     2013     1     1     2  39.0  27.0  61.6      250       8.06
    ##  3 EWR     2013     1     1     3  39.0  28.0  64.4      240      11.5 
    ##  4 EWR     2013     1     1     4  39.9  28.0  62.2      250      12.7 
    ##  5 EWR     2013     1     1     5  39.0  28.0  64.4      260      12.7 
    ##  6 EWR     2013     1     1     6  37.9  28.0  67.2      240      11.5 
    ##  7 EWR     2013     1     1     7  39.0  28.0  64.4      240      15.0 
    ##  8 EWR     2013     1     1     8  39.9  28.0  62.2      250      10.4 
    ##  9 EWR     2013     1     1     9  39.9  28.0  62.2      260      15.0 
    ## 10 EWR     2013     1     1    10  41    28.0  59.6      260      13.8 
    ## # … with 26,105 more rows, and 6 more variables: wind_gust <dbl>, precip <dbl>,
    ## #   pressure <dbl>, visib <dbl>, time_hour <dttm>, day_of_year <dbl>
…
For each (airport, day) contruct a tidy data set of the airport’s
“performance” as the proportion of flights that departed less than an
hour late.

    performance <- flights %>% mutate(day_of_year = yday(time_hour)) %>% 
      mutate(lessthanHour = dep_delay<60) %>% 
      group_by(origin, day_of_year) %>% 
      summarize(proportion = mean(lessthanHour))
    performance$proportion[is.na(performance$proportion)] <- 1
    performance

    ## # A tibble: 1,095 x 3
    ## # Groups:   origin [3]
    ##    origin day_of_year proportion
    ##    <chr>        <dbl>      <dbl>
    ##  1 EWR              1      1    
    ##  2 EWR              2      1    
    ##  3 EWR              3      1    
    ##  4 EWR              4      1    
    ##  5 EWR              5      1    
    ##  6 EWR              6      1    
    ##  7 EWR              7      0.921
    ##  8 EWR              8      1    
    ##  9 EWR              9      1    
    ## 10 EWR             10      1    
    ## # … with 1,085 more rows

Construct a tidy data set to that give weather summaries for each
(airport, day). Use the total precipitation, minimum visibility, maximum
wind\_gust, and average wind\_speed.

    weather %>% mutate(day_of_year = yday(time_hour)) %>% 
      group_by(origin, day_of_year) %>% 
      summarize(precipitation=sum(precip), minVis = min(visib), max(wind_gust), mean(wind_speed))

    ## # A tibble: 1,092 x 6
    ## # Groups:   origin [3]
    ##    origin day_of_year precipitation minVis `max(wind_gust)` `mean(wind_speed)`
    ##    <chr>        <dbl>         <dbl>  <dbl>            <dbl>              <dbl>
    ##  1 EWR              1             0     10               NA              13.2 
    ##  2 EWR              2             0     10               NA              10.9 
    ##  3 EWR              3             0     10               NA               8.58
    ##  4 EWR              4             0     10               NA              14.0 
    ##  5 EWR              5             0     10               NA               9.40
    ##  6 EWR              6             0      6               NA               9.11
    ##  7 EWR              7             0     10               NA               7.34
    ##  8 EWR              8             0      8               NA               7.19
    ##  9 EWR              9             0      6               NA               5.99
    ## 10 EWR             10             0     10               NA               8.92
    ## # … with 1,082 more rows
…
